{"photos":{"page":23,"pages":1102,"perpage":20,"total":"22027","photo":[{"id":"44852926745","owner":"161707631@N07","secret":"7cfe0aa684","server":"1935","farm":2,"title":"","ispublic":1,"isfriend":0,"isfamily":0},{"id":"44852923705","owner":"161707631@N07","secret":"a5981b3334","server":"1971","farm":2,"title":"","ispublic":1,"isfriend":0,"isfamily":0},{"id":"44852922355","owner":"161707631@N07","secret":"3867bce152","server":"1951","farm":2,"title":"","ispublic":1,"isfriend":0,"isfamily":0},{"id":"31891859338","owner":"161707631@N07","secret":"0348cc723e","server":"4893","farm":5,"title":"","ispublic":1,"isfriend":0,"isfamily":0},{"id":"31891858018","owner":"161707631@N07","secret":"fdc9ae101c","server":"1901","farm":2,"title":"","ispublic":1,"isfriend":0,"isfamily":0},{"id":"31891854018","owner":"161707631@N07","secret":"b5a1cd6230","server":"4811","farm":5,"title":"","ispublic":1,"isfriend":0,"isfamily":0},{"id":"31891852748","owner":"161707631@N07","secret":"08161ba30f","server":"1947","farm":2,"title":"","ispublic":1,"isfriend":0,"isfamily":0},{"id":"31891599758","owner":"161707631@N07","secret":"5a05ea4ca1","server":"4898","farm":5,"title":"","ispublic":1,"isfriend":0,"isfamily":0},{"id":"45712989992","owner":"161707631@N07","secret":"fd1fabc4c8","server":"1980","farm":2,"title":"","ispublic":1,"isfriend":0,"isfamily":0},{"id":"45712986722","owner":"161707631@N07","secret":"a3acb0ef8f","server":"4822","farm":5,"title":"","ispublic":1,"isfriend":0,"isfamily":0},{"id":"45712983052","owner":"161707631@N07","secret":"b1bc1b379c","server":"4864","farm":5,"title":"","ispublic":1,"isfriend":0,"isfamily":0},{"id":"45712978592","owner":"161707631@N07","secret":"774ec37a86","server":"1938","farm":2,"title":"","ispublic":1,"isfriend":0,"isfamily":0},{"id":"45712977902","owner":"161707631@N07","secret":"502ef3ef14","server":"4809","farm":5,"title":"","ispublic":1,"isfriend":0,"isfamily":0},{"id":"45712976302","owner":"161707631@N07","secret":"dec7cbf9be","server":"1916","farm":2,"title":"","ispublic":1,"isfriend":0,"isfamily":0},{"id":"45712973012","owner":"161707631@N07","secret":"c50fc8e200","server":"4863","farm":5,"title":"","ispublic":1,"isfriend":0,"isfamily":0},{"id":"43945398660","owner":"161707631@N07","secret":"04f3af681a","server":"4862","farm":5,"title":"","ispublic":1,"isfriend":0,"isfamily":0},{"id":"43945397870","owner":"161707631@N07","secret":"069dea1739","server":"4815","farm":5,"title":"","ispublic":1,"isfriend":0,"isfamily":0},{"id":"43945394400","owner":"161707631@N07","secret":"83961388d0","server":"4816","farm":5,"title":"","ispublic":1,"isfriend":0,"isfamily":0},{"id":"43945394010","owner":"161707631@N07","secret":"518880a408","server":"1933","farm":2,"title":"","ispublic":1,"isfriend":0,"isfamily":0},{"id":"43945392430","owner":"161707631@N07","secret":"9372b11db5","server":"4876","farm":5,"title":"","ispublic":1,"isfriend":0,"isfamily":0}]},"stat":"ok"}
